Version:Present Tense: Setup and Configuration (PTSC) 1.01
Build id: 20130812-0001

TenseServer Version 1.01
TenseServer Build id: 20130812-0001

TenseClient Version 1.01
TenseClient Build id: 20130812-0001
