Event,M1|Visit 1,M3W2|Visit 2,M6W3D3|Visit 3,M9|Visit 4,M12|Visit 5,M15|Visit 6,M21|Visit 7,M24|Visit 8
Blood Draw,X,X,X,,X,,,
PSA,X,X,X,X,X,X,X,X
Collect/Review 3-day food diaries,X,X,,,,,,
FFQ,X,,,,X,,,X
MD Exam,X,X,X,X,X,X,X,X
Vital Signs,X,X,X,X,X,X,X,X
Dietary Counseling,X,,,,,,,
Give Compliance Calendar/Symptom Sheet,X,,,,,,,
Supplements/MVI dispensed,X,,,,,,,
TRUS- Biopsy,X,X,,,X,,,X
Review Compliance Calendar/ Symptom Sheet,,X,,,,,,
Enroll in PCSF,,X,,,,,,
Collect pill bottles/Pill Count-Pharmacy,,X,,,,,,
