Specimen ID,Sample Type,Specimen Description,Patient ID,Sample Status,Sample Status Date,Sample Collected Quantity,Sample Collected Quantity Units,Alternate ID,Sample Collection date and time,Organization,Sample Notes,Anatomic Site,Tissue Side,Pathological Status,Expected Amount,Expected Amount Unit,Current Amount,Current Amount Unit,Pathologist,Surgeon,Collecting Technician,Processing Technician,Parent Specimen ID,Study Number
1,Cell,Test,Ank001,Checked In,01/01/2014,5,Gram,1,01/01/2014 01:01:01AM,Aithent,abc,Lymph node,Right,Malignant,5,Gram,5,Gram,Velos Admin,Velos Admin,Velos Admin,Velos Admin,791,10301
2,Cell,Test,Ank001,Checked In,01/02/2014,5,Gram,2,01/01/2014 01:01:01AM,Aithent,abc,Lymph node,Right,Malignant,5,Gram,5,Gram,Velos Admin,Velos Admin,Velos Admin,Velos Admin,546,10301
3,Cell,Test,Ank001,Checked In,01/03/2014,5,Gram,3,01/01/2014 01:01:01AM,Aithent,abc,Lymph node,Right,Malignant,5,Gram,5,Gram,Velos Admin,Velos Admin,Velos Admin,Velos Admin,547,10301
4,Cell,Test,Ank001,Checked In,01/04/2014,5,Gram,4,01/01/2014 01:01:01AM,Aithent,abc,Lymph node,Right,Malignant,5,Gram,5,Gram,Velos Admin,Velos Admin,Velos Admin,Velos Admin,548,10301
5,Cell,Test,Ank001,Checked In,01/05/2014,5,Gram,5,01/01/2014 01:01:01AM,Aithent,abc,Lymph node,Right,Malignant,5,Gram,5,Gram,Velos Admin,Velos Admin,Velos Admin,Velos Admin,549,10301
