{
  "name"             : "NoadSOAP",
  "cwd"              : "/home/mmeganathan/NoadSOAP_RESTServer/bin",
  "script"           : "www",
  "log_date_format"  : "YYYY-MM-DD HH:mm Z",
  "error_file"       : "/home/mmeganathan/NoadSOAP_RESTServer/log/PM2/isq.stderr.log", //disable error log
  "exec_mode"	     : "cluster",
  "instances"        : 1, //or 0 => 'max'
  "min_uptime"       : "20s", // 200 seconds, defaults to 1000
  "max_restarts"     : 20, // defaults to 15
  "max_memory_restart": "250M", // 1 megabytes, e.g.: "2G", "10M", "100K", 1024
  "watch"            : false,
  "merge_logs"       : false,
  "exec_interpreter" : "node",
  "autorestart"      : true,
  "vizion"           : false, 
  "env": {
    "NODE_ENV": "production"
  },
  "env_*" : {
    "SPECIFIC_ENV" : true
  }
}
