SECTION_NAME,SECTION_SEQUENCE,FIELD_NAME,FIELD_DESC,FIELD_TYPE,MULTIPLE_CHOICE_TYPE,FIELD_ID,FIELD_SEQUENCE,MANDATORY,MULTI_VALUES
Edit Box Section,1,Sample text field,Sample row for text field. This field is mandatory.,TEXT,,txt_field,1,1,
Edit Box Section,1,Sample number field,Sample row for number field.,NUMBER,,num_field,2,,
Edit Box Section,1,Sample date field,Sample row for date field.,DATE,,date_field,3,,
Comment Section,2,Sample comment field,Sample row for comment field.,COMMENT,,cmnt_field,4,,
Multiple Choice Section,3,Sample drop down field,"Sample row for drop down field. Multiple choice responses are stored in column MULTI_VALUES.
The reponses are delimited using pipe character.
Format for responses: 
RESPONSE_SEQUENCE:DISPLAY_VALUE:DATA_VALUE",MULTIPLE,DROPDOWN,dd_field,5,,1:Yes:Y|2:No:N|3:Unknown:U
Multiple Choice Section,3,Sample radio button field,"Sample row for radio button field. Multiple choice responses are stored in column MULTI_VALUES.
The reponses are delimited using pipe character.
Format for responses: 
RESPONSE_SEQUENCE:DISPLAY_VALUE:DATA_VALUE",MULTIPLE,RADIO,rb_field,6,,1:Yes:Y|2:No:N|3:Unknown:U
Multiple Choice Section,3,Sample checkbox field,"Sample row for checkbox field. Multiple choice responses are stored in column MULTI_VALUES.
The reponses are delimited using pipe character.
Format for responses: 
RESPONSE_SEQUENCE:DISPLAY_VALUE:DATA_VALUE",MULTIPLE,CHECKBOX,cb_field,7,,1:Yes:Y|2:No:N|3:Unknown:U
