{
	"_id":"54b6b15d06e32c9e38e3b214",
	"name": "Stem3",
	"stemDesc": "This stem will tell logged-in user's study team role. v9.3.x",
	"initialize": "function(obj){}",
	"do": "function(args){ var stemModel = args.stemModel, studyPK = global.params.studyPK; var studyWSClientModel = new StudyWSClientModel(); studyWSClientModel.getStudyTeamMembers(stemModel, {studyPK: studyPK}, stemModel.get('next'));}",
	"next": "function(thisModel, xmlStudyData, status){ console.log('Logging '+xmlStudyData.responseXML); var valSuccess = false; $(xmlStudyData.responseXML).find('StudyTeamMembers').find('studyTeamMember').each(function(){ var memberPK = $(this).find('userId').find(\"PK\").text(); var role = $(this).find('teamRole').find('code').text(); if (global.params.loggedInUser == memberPK){ console.log(global.mainTarget+ ' ' + role); switch(global.mainTarget){ case 'patSchedule': default: if (!document.getElementById('isqLogUsrRole')){ var $newInput = $(\"<input type='hidden' id='isqLogUsrRole' value='\"+role+\"'/>\" ); $(\"body\").append( $newInput ); } else { $('#isqLogUsrRole').val(role); } return false; break; }}});}"
}