EVENT_LIBRARY_TYPE,CATEGORY,EVENT_NAME,NOTES,DESCRIPTION,CPTCODE,COST1,COST2,COST3,COST4,ADDLCODE1,ADDLCODE2,ADDLCODE3,ADDLCODE4,ADDLCODE5
CDM1,Event Category 1,Event name 1,Event notes 1,Event Description 1,123456,10.00,20.00,25.00,50.00,CODE1,CODE2,CODE3,CODE4,CODE5
CDM1,Event Category 2,Event name 2,Event notes 2,Event Description 2,234567,10.00,20.00,25.00,50.00,CODE1,CODE2,CODE3,CODE4,CODE5
CDM1,Event Category 3,Event name 3,Event notes 3,Event Description 3,345678,10.00,20.00,25.00,50.00,CODE1,CODE2,CODE3,CODE4,CODE5 
CDM2,Event Category 1,Event name 4,Event notes 4,Event Description 4,456789,10.00,20.00,25.00,50.00,CODE1,CODE2,CODE3,CODE4,CODE5
CDM2,Event Category 2,Event name 5,Event notes 5,Event Description 5,567900,10.00,20.00,25.00,50.00,CODE1,CODE2,CODE3,CODE4,CODE5
CDM2,Event Category 3,Event name 6,Event notes 6,Event Description 6,679011,10.00,20.00,25.00,50.00,CODE1,CODE2,CODE3,CODE4,CODE5
